…
### Installation

``` r
remotes::install_github("paithiov909/krikinton")
```

### Use Sudachi

``` r
krikinton::sudachi(c(
  "なぜ分かり合えないのか！？",
  "なぜ貴様等は他を出し抜こうとするのか！？",
  "ところできのこはあんな縦に長かったか！？"
))
#> # A tibble: 32 x 12
#>      Sid Surface Reading Normalized Original POS1  POS2  POS3  POS4  X5StageUse1
#>    <int> <chr>   <chr>   <chr>      <chr>    <chr> <chr> <chr> <chr> <chr>      
#>  1     1 なぜ    ナゼ    何故       なぜ     副詞  *     *     *     *          
#>  2     1 分かり合え~ ワカリアエ~ 分かり合う 分かり合える~ 動詞  一般  *     *     下一段-ア行
#>  3     1 ない    ナイ    ない       ない     助動詞~ *     *     *     助動詞-ナイ
#>  4     1 の      ノ      の         の       助詞  準体助詞~ *     *     *          
#>  5     1 か      カ      か         か       助詞  終助詞~ *     *     *          
#>  6     1 ！      キゴウ  ！         !        補助記号~ 句点  *     *     *          
#>  7     1 ？      キゴウ  ？         ？       補助記号~ 句点  *     *     *          
#>  8     2 なぜ    ナゼ    何故       なぜ     副詞  *     *     *     *          
#>  9     2 貴様    キサマ  貴様       貴様     代名詞~ *     *     *     *          
#> 10     2 等      トウ    等         等       接尾辞~ 名詞的~ 一般  *     *          
#> # ... with 22 more rows, and 2 more variables: X5StageUse2 <chr>, isOOV <lgl>
```

### Use Kintoki

``` r
krikinton::kintoki(c(
  "とにかく不様、そんな事ではあの小娘には勝てないわ。",
  "そう、皆で協力して挑むのだ！",
  "えー、まぁ今回はその件で伺いました。"
))
#> # A tibble: 38 x 14
#>      Sid   Cid  Link  Score  Head  Func   Tid Surface POS1  POS2  POS3  POS4 
#>    <int> <int> <int>  <dbl> <int> <int> <int> <chr>   <chr> <chr> <chr> <chr>
#>  1     1     0     6 -2.18      0     0     0 とにかく~ 副詞  *     *     *    
#>  2     1     1     3  0.190     0     0     0 不様    名詞  普通名詞~ 形状詞可~ *    
#>  3     1     1     3  0.190     0     0     1 、      補助記号~ 読点  *     *    
#>  4     1     2     3  1.60      0     0     0 そんな  連体詞~ *     *     *    
#>  5     1     3     6 -2.18      0     2     0 事      名詞  普通名詞~ 一般  *    
#>  6     1     3     6 -2.18      0     2     1 で      助詞  格助詞~ *     *    
#>  7     1     3     6 -2.18      0     2     2 は      助詞  係助詞~ *     *    
#>  8     1     4     5  0.915     0     0     0 あの    感動詞~ フィラー~ *     *    
#>  9     1     5     6 -2.18      0     2     0 小娘    名詞  普通名詞~ 一般  *    
#> 10     1     5     6 -2.18      0     2     1 に      助詞  格助詞~ *     *    
#> # ... with 28 more rows, and 2 more variables: X5StageUse1 <chr>,
#> #   X5StageUse2 <chr>
```
…
