rJava Wrapper of Sudachi and Kintoki • krikinton
…
Usage

Installation

remotes::install_github("paithiov909/krikinton")

Use Sudachi

krikinton::sudachi(c(
  "なぜ分かり合えないのか！？",
  "なぜ貴様等は他を出し抜こうとするのか！？",
  "ところできのこはあんな縦に長かったか！？"
))
#> # A tibble: 32 x 12
#>    sentence_id Surface   Reading  Normalized Original  POS1   POS2   POS3  POS4 
#>          <int> <chr>     <chr>    <chr>      <chr>     <chr>  <chr>  <chr> <chr>
#>  1           1 なぜ      ナゼ     何故       なぜ      副詞   <NA>   <NA>  <NA> 
#>  2           1 分かり合~ ワカリ~  分かり合う 分かり合~ 動詞   一般   <NA>  <NA> 
#>  3           1 ない      ナイ     ない       ない      助動詞 <NA>   <NA>  <NA> 
#>  4           1 の        ノ       の         の        助詞   準体~  <NA>  <NA> 
#>  5           1 か        カ       か         か        助詞   終助詞 <NA>  <NA> 
#>  6           1 ！        キゴウ   ！         !         補助~  句点   <NA>  <NA> 
#>  7           1 ？        キゴウ   ？         ？        補助~  句点   <NA>  <NA> 
#>  8           2 なぜ      ナゼ     何故       なぜ      副詞   <NA>   <NA>  <NA> 
#>  9           2 貴様      キサマ   貴様       貴様      代名詞 <NA>   <NA>  <NA> 
#> 10           2 等        トウ     等         等        接尾辞 名詞的 一般  <NA> 
#> # ... with 22 more rows, and 3 more variables: X5StageUse1 <chr>,
#> #   X5StageUse2 <chr>, isOOV <lgl>

Use Kintoki

krikinton::kintoki(c(
  "とにかく不様、そんな事ではあの小娘には勝てないわ。",
  "そう、皆で協力して挑むのだ！",
  "えー、まぁ今回はその件で伺いました。"
))
#> # A tibble: 38 x 14
#>    sentence_id chunk_id  Link  Score  Head  Func token_id Surface  POS1   POS2  
#>          <int>    <int> <int>  <dbl> <int> <int>    <int> <chr>    <chr>  <chr> 
#>  1           1        0     6 -2.18      0     0        0 とにかく 副詞   <NA>  
#>  2           1        1     3  0.190     0     0        0 不様     名詞   普通~ 
#>  3           1        1     3  0.190     0     0        1 、       補助~  読点  
#>  4           1        2     3  1.60      0     0        0 そんな   連体詞 <NA>  
#>  5           1        3     6 -2.18      0     2        0 事       名詞   普通~ 
#>  6           1        3     6 -2.18      0     2        1 で       助詞   格助詞
#>  7           1        3     6 -2.18      0     2        2 は       助詞   係助詞
#>  8           1        4     5  0.915     0     0        0 あの     感動詞 フィ~ 
#>  9           1        5     6 -2.18      0     2        0 小娘     名詞   普通~ 
#> 10           1        5     6 -2.18      0     2        1 に       助詞   格助詞
#> # ... with 28 more rows, and 4 more variables: POS3 <chr>, POS4 <chr>,
#> #   X5StageUse1 <chr>, X5StageUse2 <chr>
…
